[
  {
    "keyword": "Feature",
    "name": "System Admin, should able to create a Market",
    "line": 1,
    "id": "system-admin,-should-able-to-create-a-market",
    "tags": [],
    "uri": "addMarket.feature",
    "elements": [
      {
        "id": "system-admin,-should-able-to-create-a-market;verify-user-can-able-to-enter-market-details-and-can-able-to-set-up-the-market-level-while-creating-the-market",
        "keyword": "Scenario",
        "line": 7,
        "name": "Verify user can able to enter Market Details and can able to set up the Market Level while creating the Market",
        "tags": [
          {
            "name": "@TestCaseKey=TM-T373",
            "line": 5
          },
          {
            "name": "@SmokeTest",
            "line": 6
          }
        ],
        "type": "scenario",
        "steps": [
          {
            "arguments": [],
            "keyword": "Given ",
            "line": 4,
            "name": "I login as System Admin",
            "result": {
              "status": "passed",
              "duration": 7672000000
            }
          },
          {
            "arguments": [],
            "keyword": "And ",
            "line": 8,
            "name": "I click Add Market button",
            "result": {
              "status": "passed",
              "duration": 3717000000
            }
          },
          {
            "arguments": [],
            "keyword": "And ",
            "line": 9,
            "name": "I enter all the details in the Market page",
            "result": {
              "status": "passed",
              "duration": 24866000000
            }
          },
          {
            "arguments": [],
            "keyword": "And ",
            "line": 10,
            "name": "I setup different market level",
            "result": {
              "status": "passed",
              "duration": 4202000000
            }
          },
          {
            "arguments": [],
            "keyword": "When ",
            "line": 11,
            "name": "I click Next button in Market level button",
            "result": {
              "status": "passed",
              "duration": 1429000000
            }
          },
          {
            "arguments": [],
            "keyword": "Then ",
            "line": 12,
            "name": "I acknowledge the confirmation popup by clicking Yes button",
            "result": {
              "status": "passed",
              "duration": 850000000
            }
          },
          {
            "arguments": [],
            "keyword": "Given ",
            "line": 13,
            "name": "I select all Mandatory values in Manage Ingredients",
            "result": {
              "status": "passed",
              "duration": 18104000000
            }
          },
          {
            "arguments": [],
            "keyword": "And ",
            "line": 14,
            "name": "I select all Mandatory values in Ingredients setup",
            "result": {
              "status": "passed",
              "duration": 9201000000
            }
          },
          {
            "arguments": [],
            "keyword": "When ",
            "line": 15,
            "name": "I click on Save button",
            "result": {
              "status": "passed",
              "duration": 4730000000
            }
          },
          {
            "arguments": [],
            "keyword": "Then ",
            "line": 16,
            "name": "I search for the created market",
            "result": {
              "status": "passed",
              "duration": 5912000000
            }
          },
          {
            "arguments": [],
            "keyword": "And ",
            "line": 17,
            "name": "I view the market details and market level setup",
            "result": {
              "status": "passed",
              "duration": 4049000000
            }
          }
        ]
      },
      {
        "id": "system-admin,-should-able-to-create-a-market;gd2-201_tc04:-verify-system-admin-can-able-to-create-a-market/entity-with-the-mandatory-fields-entered",
        "keyword": "Scenario",
        "line": 19,
        "name": "GD2-201_TC04: Verify System Admin can able to create a market/entity with the Mandatory fields entered",
        "tags": [
          {
            "name": "@TestCaseKey=TM-T74",
            "line": 18
          }
        ],
        "type": "scenario",
        "steps": [
          {
            "arguments": [],
            "keyword": "Given ",
            "line": 4,
            "name": "I login as System Admin",
            "result": {
              "status": "passed",
              "duration": 6821000000
            }
          },
          {
            "arguments": [],
            "keyword": "And ",
            "line": 20,
            "name": "I click Add Market button",
            "result": {
              "status": "passed",
              "duration": 3617000000
            }
          },
          {
            "arguments": [],
            "keyword": "When ",
            "line": 21,
            "name": "I have entered all the mandatory fields",
            "result": {
              "status": "passed",
              "duration": 13388000000
            }
          },
          {
            "arguments": [],
            "keyword": "Then ",
            "line": 22,
            "name": "save & next is enabled",
            "result": {
              "status": "passed",
              "duration": 108000000
            }
          }
        ]
      },
      {
        "id": "system-admin,-should-able-to-create-a-market;gd2-201_tc06:-verify-error-msg-is-displayed-when-a-mandatory-field-is-not-entered-by-the-user",
        "keyword": "Scenario",
        "line": 24,
        "name": "GD2-201_TC06: Verify error msg is displayed when a mandatory field is not entered by the user",
        "tags": [
          {
            "name": "@TestCaseKey=TM-T75",
            "line": 23
          }
        ],
        "type": "scenario",
        "steps": [
          {
            "arguments": [],
            "keyword": "Given ",
            "line": 4,
            "name": "I login as System Admin",
            "result": {
              "status": "passed",
              "duration": 7649000000
            }
          },
          {
            "arguments": [],
            "keyword": "And ",
            "line": 25,
            "name": "I click Add Market button",
            "result": {
              "status": "passed",
              "duration": 3379000000
            }
          },
          {
            "arguments": [],
            "keyword": "When ",
            "line": 26,
            "name": "I have entered all the mandatory fields",
            "result": {
              "status": "passed",
              "duration": 12796000000
            }
          },
          {
            "arguments": [],
            "keyword": "And ",
            "line": 27,
            "name": "I clear Market Name mandatory fields",
            "result": {
              "status": "passed",
              "duration": 757000000
            }
          },
          {
            "arguments": [],
            "keyword": "Then ",
            "line": 28,
            "name": "Save button is disabled and Market Name Error msg \"Market Name is required\" is displayed",
            "result": {
              "status": "passed",
              "duration": 4571000000
            }
          },
          {
            "arguments": [],
            "keyword": "When ",
            "line": 29,
            "name": "I clear Country code mandatory fields",
            "result": {
              "status": "passed",
              "duration": 649000000
            }
          },
          {
            "arguments": [],
            "keyword": "Then ",
            "line": 30,
            "name": "Save button is disabled and Country code Error msg \"Please select Country Code\" is displayed",
            "result": {
              "status": "passed",
              "duration": 4522000000
            }
          },
          {
            "arguments": [],
            "keyword": "When ",
            "line": 31,
            "name": "I clear Business Email Address mandatory fields",
            "result": {
              "status": "passed",
              "duration": 797000000
            }
          },
          {
            "arguments": [],
            "keyword": "Then ",
            "line": 32,
            "name": "Save button is disabled and Business Email Address Error msg \"Business Email Address is required\" is displayed",
            "result": {
              "status": "passed",
              "duration": 3290000000
            }
          },
          {
            "arguments": [],
            "keyword": "When ",
            "line": 33,
            "name": "I clear Business landline code mandatory fields",
            "result": {
              "status": "passed",
              "duration": 818000000
            }
          },
          {
            "arguments": [],
            "keyword": "Then ",
            "line": 34,
            "name": "Save button is disabled and Business landline code Error msg \"Country Code is required\" is displayed",
            "result": {
              "status": "passed",
              "duration": 2715000000
            }
          },
          {
            "arguments": [],
            "keyword": "When ",
            "line": 35,
            "name": "I clear Business landline number mandatory fields",
            "result": {
              "status": "passed",
              "duration": 734000000
            }
          },
          {
            "arguments": [],
            "keyword": "Then ",
            "line": 36,
            "name": "Save button is disabled and Business landline number Error msg \"Business Landline Number is required\" is displayed",
            "result": {
              "status": "passed",
              "duration": 2980000000
            }
          },
          {
            "arguments": [],
            "keyword": "When ",
            "line": 37,
            "name": "I clear Alarm email mandatory fields",
            "result": {
              "status": "passed",
              "duration": 785000000
            }
          },
          {
            "arguments": [],
            "keyword": "Then ",
            "line": 38,
            "name": "Save button is disabled and Alarm email Error msg \"Alarms Escalation Email is required\" is displayed",
            "result": {
              "status": "passed",
              "duration": 3145000000
            }
          },
          {
            "arguments": [],
            "keyword": "When ",
            "line": 39,
            "name": "I clear Cup Size Small mandatory fields",
            "result": {
              "status": "passed",
              "duration": 1124000000
            }
          },
          {
            "arguments": [],
            "keyword": "Then ",
            "line": 40,
            "name": "Save button is disabled and Cup Size - Small Error msg \"Cup Size - Small is required\" is displayed",
            "result": {
              "status": "passed",
              "duration": 3044000000
            }
          },
          {
            "arguments": [],
            "keyword": "When ",
            "line": 41,
            "name": "I clear Cup Size Medium mandatory fields",
            "result": {
              "status": "passed",
              "duration": 1097000000
            }
          },
          {
            "arguments": [],
            "keyword": "Then ",
            "line": 42,
            "name": "Save button is disabled and Cup Size - Medium Error msg \"Cup Size - Medium is required\" is displayed",
            "result": {
              "status": "passed",
              "duration": 3187000000
            }
          },
          {
            "arguments": [],
            "keyword": "When ",
            "line": 43,
            "name": "I clear Cup Size Large mandatory fields",
            "result": {
              "status": "passed",
              "duration": 1133000000
            }
          },
          {
            "arguments": [],
            "keyword": "Then ",
            "line": 44,
            "name": "Save button is disabled and Cup Size - Large Error msg \"Cup Size - Large is required\" is displayed",
            "result": {
              "status": "passed",
              "duration": 3217000000
            }
          },
          {
            "arguments": [],
            "keyword": "When ",
            "line": 45,
            "name": "I clear Coca Cola Region mandatory fields",
            "result": {
              "status": "passed",
              "duration": 1218000000
            }
          },
          {
            "arguments": [],
            "keyword": "Then ",
            "line": 46,
            "name": "Save button is disabled and Coca Cola Region Error msg \"Coca Cola Region is required\" is displayed",
            "result": {
              "status": "passed",
              "duration": 3351000000
            }
          }
        ]
      },
      {
        "id": "system-admin,-should-able-to-create-a-market;gd2-51_tc23,tc37:-verify-that-'bill-to'-value-is-unique-for-the-'add-market'-entity.",
        "keyword": "Scenario",
        "line": 48,
        "name": "GD2-51_TC23,TC37: Verify that 'Bill To' value is unique for the 'Add Market' entity.",
        "tags": [
          {
            "name": "@TestCaseKey=TM-T370",
            "line": 47
          }
        ],
        "type": "scenario",
        "steps": [
          {
            "arguments": [],
            "keyword": "Given ",
            "line": 4,
            "name": "I login as System Admin",
            "result": {
              "status": "passed",
              "duration": 7284000000
            }
          },
          {
            "arguments": [],
            "keyword": "And ",
            "line": 49,
            "name": "I click Add Market button",
            "result": {
              "status": "passed",
              "duration": 5036000000
            }
          },
          {
            "arguments": [],
            "keyword": "And ",
            "line": 50,
            "name": "I have entered all the mandatory fields with existing Bill To",
            "result": {
              "status": "passed",
              "duration": 16249000000
            }
          },
          {
            "arguments": [],
            "keyword": "When ",
            "line": 51,
            "name": "I select save & next button",
            "result": {
              "status": "passed",
              "duration": 2044000000
            }
          },
          {
            "arguments": [],
            "keyword": "Then ",
            "line": 52,
            "name": "I see an error msg for already existing bill to value",
            "result": {
              "status": "passed",
              "duration": 183000000
            }
          }
        ]
      },
      {
        "id": "system-admin,-should-able-to-create-a-market;gd2-51_tc44:-verify-that-'market-name'-value-is-unique-for-the-'add-market'-entity.",
        "keyword": "Scenario",
        "line": 54,
        "name": "GD2-51_TC44: Verify that 'Market Name' value is unique for the 'Add Market' entity.",
        "tags": [
          {
            "name": "@TestCaseKey=TM-T371",
            "line": 53
          }
        ],
        "type": "scenario",
        "steps": [
          {
            "arguments": [],
            "keyword": "Given ",
            "line": 4,
            "name": "I login as System Admin",
            "result": {
              "status": "passed",
              "duration": 5671000000
            }
          },
          {
            "arguments": [],
            "keyword": "And ",
            "line": 55,
            "name": "I click Add Market button",
            "result": {
              "status": "passed",
              "duration": 3467000000
            }
          },
          {
            "arguments": [],
            "keyword": "And ",
            "line": 56,
            "name": "I have entered all the mandatory fields with existing Market Name",
            "result": {
              "status": "passed",
              "duration": 13482000000
            }
          },
          {
            "arguments": [],
            "keyword": "When ",
            "line": 57,
            "name": "I select save & next button",
            "result": {
              "status": "passed",
              "duration": 2193000000
            }
          },
          {
            "arguments": [],
            "keyword": "Then ",
            "line": 58,
            "name": "I see an error msg for already existing Market Name",
            "result": {
              "status": "passed",
              "duration": 161000000
            }
          }
        ]
      },
      {
        "id": "system-admin,-should-able-to-create-a-market;gd2-201_tc23,tc24,tc28,tc29,tc35,tc36:verify-that-country-code,-timezone,-price-card,-email-and-phone-no-fields-accepts-only-valid-format-in-add-market-entity",
        "keyword": "Scenario",
        "line": 60,
        "name": "GD2-201_TC23,TC24,TC28,TC29,TC35,TC36:Verify that country code, timezone, price card, email and phone no fields accepts only valid format in Add Market entity",
        "tags": [
          {
            "name": "@TestCaseKey=TM-T371",
            "line": 59
          }
        ],
        "type": "scenario",
        "steps": [
          {
            "arguments": [],
            "keyword": "Given ",
            "line": 4,
            "name": "I login as System Admin",
            "result": {
              "status": "passed",
              "duration": 7542000000
            }
          },
          {
            "arguments": [],
            "keyword": "And ",
            "line": 61,
            "name": "I click Add Market button",
            "result": {
              "status": "passed",
              "duration": 3457000000
            }
          },
          {
            "arguments": [],
            "keyword": "And ",
            "line": 62,
            "name": "I have entered all the mandatory fields",
            "result": {
              "status": "passed",
              "duration": 13584000000
            }
          },
          {
            "arguments": [
              {
                "rows": [
                  {
                    "cells": [
                      "Value",
                      "ErrorMsg"
                    ]
                  },
                  {
                    "cells": [
                      "aaaaa",
                      "Please select Country Code"
                    ]
                  },
                  {
                    "cells": [
                      "11",
                      "Please select Country Code"
                    ]
                  }
                ]
              }
            ],
            "keyword": "When ",
            "line": 63,
            "name": "I enter incorrect values in Country Code, I would see following error msg",
            "result": {
              "status": "passed",
              "duration": 6226000000
            }
          },
          {
            "arguments": [],
            "keyword": "And ",
            "line": 67,
            "name": "I enter valid Country Code, no warning msg is displayed",
            "result": {
              "status": "passed",
              "duration": 2544000000
            }
          },
          {
            "arguments": [
              {
                "rows": [
                  {
                    "cells": [
                      "Value",
                      "ErrorMsg"
                    ]
                  },
                  {
                    "cells": [
                      "1111",
                      "Please select Timezone"
                    ]
                  },
                  {
                    "cells": [
                      "abc",
                      "Please select Timezone"
                    ]
                  }
                ]
              }
            ],
            "keyword": "When ",
            "line": 68,
            "name": "I enter incorrect values in Timezone, I would see following error msg",
            "result": {
              "status": "passed",
              "duration": 6284000000
            }
          },
          {
            "arguments": [],
            "keyword": "And ",
            "line": 72,
            "name": "I enter valid Timezone, no warning msg is displayed",
            "result": {
              "status": "passed",
              "duration": 1786000000
            }
          },
          {
            "arguments": [
              {
                "rows": [
                  {
                    "cells": [
                      "Value",
                      "ErrorMsg"
                    ]
                  },
                  {
                    "cells": [
                      "11.co.uk",
                      "Enter valid Business Email Address"
                    ]
                  },
                  {
                    "cells": [
                      "1@co.uk.i",
                      "Enter valid Business Email Address"
                    ]
                  },
                  {
                    "cells": [
                      "1@co.u",
                      "Enter valid Business Email Address"
                    ]
                  },
                  {
                    "cells": [
                      "1@co.c0m",
                      "Enter valid Business Email Address"
                    ]
                  },
                  {
                    "cells": [
                      "abc.def@mail#archive.com",
                      "Enter valid Business Email Address"
                    ]
                  },
                  {
                    "cells": [
                      "a@m.n",
                      "Enter valid Business Email Address"
                    ]
                  },
                  {
                    "cells": [
                      "a@ma.n-",
                      "Enter valid Business Email Address"
                    ]
                  }
                ]
              }
            ],
            "keyword": "When ",
            "line": 73,
            "name": "I enter incorrect values in Business Email Address, I would see following error msg",
            "result": {
              "status": "passed",
              "duration": 21665000000
            }
          },
          {
            "arguments": [],
            "keyword": "And ",
            "line": 82,
            "name": "I enter valid Business Email Address, no warning msg is displayed",
            "result": {
              "status": "passed",
              "duration": 1335000000
            }
          },
          {
            "arguments": [
              {
                "rows": [
                  {
                    "cells": [
                      "Value",
                      "ErrorMsg"
                    ]
                  },
                  {
                    "cells": [
                      "11.co.uk",
                      "Enter valid Alarms Escalation Email"
                    ]
                  },
                  {
                    "cells": [
                      "1@co.uk.i",
                      "Enter valid Alarms Escalation Email"
                    ]
                  },
                  {
                    "cells": [
                      "1@co.u",
                      "Enter valid Alarms Escalation Email"
                    ]
                  },
                  {
                    "cells": [
                      "1@co.c0m",
                      "Enter valid Alarms Escalation Email"
                    ]
                  },
                  {
                    "cells": [
                      "abc.def@mail#archive.com",
                      "Enter valid Alarms Escalation Email"
                    ]
                  },
                  {
                    "cells": [
                      "a@m.n",
                      "Enter valid Alarms Escalation Email"
                    ]
                  },
                  {
                    "cells": [
                      "a@ma.n-",
                      "Enter valid Alarms Escalation Email"
                    ]
                  }
                ]
              }
            ],
            "keyword": "When ",
            "line": 83,
            "name": "I enter incorrect values in Alarms Escalation Email, I would see following error msg",
            "result": {
              "status": "passed",
              "duration": 24100000000
            }
          },
          {
            "arguments": [],
            "keyword": "And ",
            "line": 92,
            "name": "I enter valid Alarms Escalation Email, no warning msg is displayed",
            "result": {
              "status": "passed",
              "duration": 1491000000
            }
          },
          {
            "arguments": [
              {
                "rows": [
                  {
                    "cells": [
                      "Value",
                      "ErrorMsg"
                    ]
                  },
                  {
                    "cells": [
                      "0011",
                      "Enter valid Country Code"
                    ]
                  },
                  {
                    "cells": [
                      "+44",
                      "Enter valid Country Code"
                    ]
                  },
                  {
                    "cells": [
                      "abc",
                      "Enter valid Country Code"
                    ]
                  },
                  {
                    "cells": [
                      "1 1",
                      "Enter valid Country Code"
                    ]
                  }
                ]
              }
            ],
            "keyword": "When ",
            "line": 93,
            "name": "I enter incorrect values in Business Landline Area Code Number, I would see following error msg",
            "result": {
              "status": "passed",
              "duration": 15494000000
            }
          },
          {
            "arguments": [],
            "keyword": "And ",
            "line": 99,
            "name": "I enter valid Business Landline Area Code Number, no warning msg is displayed",
            "result": {
              "status": "passed",
              "duration": 1289000000
            }
          },
          {
            "arguments": [
              {
                "rows": [
                  {
                    "cells": [
                      "Value",
                      "ErrorMsg"
                    ]
                  },
                  {
                    "cells": [
                      "111111",
                      "Enter valid Business Landline Number"
                    ]
                  },
                  {
                    "cells": [
                      "1234567890123456",
                      "Enter valid Business Landline Number"
                    ]
                  },
                  {
                    "cells": [
                      "1111-8888",
                      "Enter valid Business Landline Number"
                    ]
                  },
                  {
                    "cells": [
                      "1111 8888",
                      "Enter valid Business Landline Number"
                    ]
                  },
                  {
                    "cells": [
                      "1111o8888",
                      "Enter valid Business Landline Number"
                    ]
                  }
                ]
              }
            ],
            "keyword": "When ",
            "line": 100,
            "name": "I enter incorrect values in Business Landline Number, I would see following error msg",
            "result": {
              "status": "passed",
              "duration": 21517000000
            }
          },
          {
            "arguments": [],
            "keyword": "And ",
            "line": 107,
            "name": "I enter valid Business Landline Number, no warning msg is displayed",
            "result": {
              "status": "passed",
              "duration": 1606000000
            }
          },
          {
            "arguments": [
              {
                "rows": [
                  {
                    "cells": [
                      "Value",
                      "ErrorMsg"
                    ]
                  },
                  {
                    "cells": [
                      "++",
                      "Please select Price Card"
                    ]
                  }
                ]
              }
            ],
            "keyword": "When ",
            "line": 108,
            "name": "I enter incorrect values in Price Card, I would see following error msg",
            "result": {
              "status": "passed",
              "duration": 4259000000
            }
          },
          {
            "arguments": [],
            "keyword": "And ",
            "line": 111,
            "name": "I enter valid Price Card, no warning msg is displayed",
            "result": {
              "status": "passed",
              "duration": 2208000000
            }
          }
        ]
      },
      {
        "id": "system-admin,-should-able-to-create-a-market;verify-user-can-able-to-edit-the-fields-in-the-market-page",
        "keyword": "Scenario",
        "line": 113,
        "name": "Verify user can able to Edit the fields in the Market Page",
        "tags": [
          {
            "name": "@TestCaseKey=TM-T374",
            "line": 112
          }
        ],
        "type": "scenario",
        "steps": [
          {
            "arguments": [],
            "keyword": "Given ",
            "line": 4,
            "name": "I login as System Admin",
            "result": {
              "status": "passed",
              "duration": 8231000000
            }
          },
          {
            "arguments": [],
            "keyword": "And ",
            "line": 114,
            "name": "I search for the created market",
            "result": {
              "status": "passed",
              "duration": 7260000000
            }
          },
          {
            "arguments": [],
            "keyword": "And ",
            "line": 115,
            "name": "I select a Market and click on Edit button",
            "result": {
              "status": "passed",
              "duration": 913000000
            }
          },
          {
            "arguments": [
              {
                "rows": [
                  {
                    "cells": [
                      "fields",
                      "popupMsg"
                    ]
                  },
                  {
                    "cells": [
                      "#edit-marketFranchiseId",
                      "Are you sure, you want to update Franchise ID?"
                    ]
                  },
                  {
                    "cells": [
                      "#edit-marketName",
                      "Are you sure, you want to update Market Name?"
                    ]
                  },
                  {
                    "cells": [
                      "#edit-marketBillTo",
                      "Are you sure, you want to update Bill To?"
                    ]
                  },
                  {
                    "cells": [
                      "#edit-marketTimeZone",
                      "Are you sure, you want to update Timezone?"
                    ]
                  },
                  {
                    "cells": [
                      "#edit-marketParentOrganizationName",
                      "Are you sure, you want to update Parent Organization Name?"
                    ]
                  },
                  {
                    "cells": [
                      "#edit-marketCocaColaRegion",
                      "Are you sure, you want to update Coca Cola Region?"
                    ]
                  }
                ]
              }
            ],
            "keyword": "When ",
            "line": 116,
            "name": "I edit the fields, I would see popup msg appeared",
            "result": {
              "status": "passed",
              "duration": 8656000000
            }
          },
          {
            "arguments": [],
            "keyword": "Then ",
            "line": 124,
            "name": "I click Yes and edit all the fields",
            "result": {
              "status": "passed",
              "duration": 20489000000
            }
          },
          {
            "arguments": [],
            "keyword": "When ",
            "line": 125,
            "name": "I click on Save&Next button",
            "result": {
              "status": "passed",
              "duration": 2196000000
            }
          },
          {
            "arguments": [],
            "keyword": "Then ",
            "line": 126,
            "name": "I should not able to edit the fields in the Market level setup page",
            "result": {
              "status": "passed",
              "duration": 661000000
            }
          },
          {
            "arguments": [],
            "keyword": "And ",
            "line": 127,
            "name": "I click cancel button",
            "result": {
              "status": "passed",
              "duration": 524000000
            }
          },
          {
            "arguments": [],
            "keyword": "And ",
            "line": 128,
            "name": "I search for the edited market",
            "result": {
              "status": "passed",
              "duration": 7584000000
            }
          },
          {
            "arguments": [],
            "keyword": "And ",
            "line": 129,
            "name": "I select the Market and I click on view button",
            "result": {
              "status": "passed",
              "duration": 1851000000
            }
          },
          {
            "arguments": [],
            "keyword": "When ",
            "line": 130,
            "name": "I click on Edit button in the view page",
            "result": {
              "status": "passed",
              "duration": 2206000000
            }
          },
          {
            "arguments": [],
            "keyword": "Then ",
            "line": 131,
            "name": "I should able to navigate to edit screen",
            "result": {
              "status": "passed",
              "duration": 209000000
            }
          },
          {
            "arguments": [
              {
                "rows": [
                  {
                    "cells": [
                      "fields",
                      "popupMsg"
                    ]
                  },
                  {
                    "cells": [
                      "#edit-marketFranchiseId",
                      "Are you sure, you want to update Franchise ID?"
                    ]
                  },
                  {
                    "cells": [
                      "#edit-marketName",
                      "Are you sure, you want to update Market Name?"
                    ]
                  },
                  {
                    "cells": [
                      "#edit-marketBillTo",
                      "Are you sure, you want to update Bill To?"
                    ]
                  },
                  {
                    "cells": [
                      "#edit-marketTimeZone",
                      "Are you sure, you want to update Timezone?"
                    ]
                  },
                  {
                    "cells": [
                      "#edit-marketParentOrganizationName",
                      "Are you sure, you want to update Parent Organization Name?"
                    ]
                  },
                  {
                    "cells": [
                      "#edit-marketCocaColaRegion",
                      "Are you sure, you want to update Coca Cola Region?"
                    ]
                  }
                ]
              }
            ],
            "keyword": "When ",
            "line": 132,
            "name": "I edit the fields, I would see popup msg appeared",
            "result": {
              "status": "passed",
              "duration": 9578000000
            }
          },
          {
            "arguments": [],
            "keyword": "Then ",
            "line": 140,
            "name": "I click Yes and edit all the fields with other information",
            "result": {
              "status": "passed",
              "duration": 34406000000
            }
          },
          {
            "arguments": [],
            "keyword": "When ",
            "line": 141,
            "name": "I click on Save&Next button",
            "result": {
              "status": "passed",
              "duration": 3359000000
            }
          },
          {
            "arguments": [],
            "keyword": "Then ",
            "line": 142,
            "name": "I should not able to edit the fields in the Market level setup page",
            "result": {
              "status": "passed",
              "duration": 1318000000
            }
          }
        ]
      }
    ]
  }
]